Creative Coding - Truchet tiles
…
Now let’s make 4 x 4 times grid with these tiles!

mygrid <- expand_grid(row = 0:3, col = 0:3) %>% 
  mutate(tile_id = 1:n()) %>% 
  rowwise() %>% 
  mutate(tile = sample(c("tile1", "tile2", "tile3", "tile4"), 1)) %>% 
  full_join(bind_rows(tile1, tile2, tile3, tile4), by = "tile") %>% 
  mutate(x = col + x,
         y = row + y)

mygrid

# A tibble: 128 × 7
# Rowwise: 
     row   col tile_id tile      x     y g    
   <int> <int>   <int> <chr> <dbl> <dbl> <fct>
 1     0     0       1 tile3     0     0 2    
 2     0     0       1 tile3     0     1 2    
 3     0     0       1 tile3     1     0 2    
 4     0     0       1 tile3     0     0 2    
 5     0     0       1 tile3     1     0 1    
 6     0     0       1 tile3     1     1 1    
 7     0     0       1 tile3     0     1 1    
 8     0     0       1 tile3     1     0 1    
 9     0     1       2 tile4     1     0 2    
10     0     1       2 tile4     1     1 2    
# ℹ 118 more rows
…
